{
  "apps" : [{
    "name"        : "app",
    "script"      : "bin/server",
    "watch"       : true,
    "ignore_watch": ["node_modules", ".cache", ".idea"],
    "node_args": ["--inspect=0.0.0.0:5959"]
  }]
}